perltidy version 20130717 log file on a linux system, OLD_PERL_VERSION=5.016003
Configuration and command line parameters for this run:
-bar -it=4 -l
To find error messages search for 'WARNING' with your editor
Indentation will be with 4 spaces
Line 1 implies starting-indentation-level = 0
The nesting depths in the table below are at the start of the lines.
The indicated output line numbers are not always exact.
ci = levels of continuation indentation; bk = 1 if in BLOCK, 0 if not.

in:out indent c b  nesting   code + messages; (messages begin with >>>)
lines  levels i k            (code begins with one '.' per indent level)
------  ----- - - --------   -------------------------------------------
L1:1     i0:0 0 1            package WebTrackware::View::TT;
L25:25   i0:0 0 1            sub days_of_week_human {
L51:51   i0:0 0 1            sub hour_human {
L58:58   i0:0 0 1 {          >>>Entering POD section
L58:58   i0:0 0 1 {          >>>Exiting POD section
L83:83   i0:0 0 1            >>>Last line

No indentation disagreement seen

No lines exceeded 120 characters
  Maximum output line length was 68 at line 78
Suggest including 'use warnings;'
Suggest including 'use strict;'
Converged.  Output for iteration 2 same as for iter 1.
